<svg xmlns="http://www.w3.org/2000/svg" viewBox="0 0 509.02 512"><path d="M75.37 370.3c2.14 15.83-5.77 31.98-20.94 39.29-18.85 9.1-41.55 1.17-50.68-17.68-9.08-18.83-1.13-41.58 17.7-50.65 7.05-3.4 14.63-4.42 21.85-3.38-78.28-111.35 52-190.53 52-190.53-5.86 43.04-8.24 91.16-8.24 91.16-67.31 41.45.92 64.06 39.81 72.87 19.77 53.62 71.18 91.94 131.66 91.94 1.92 0 3.77-.21 5.67-.28l.11 18.86c-99.22 1.39-158.7-29.14-188.94-51.6zM183.38 42.6c.89-7-.1-14.33-3.39-21.15-9.1-18.84-31.82-26.78-50.66-17.69-18.86 9.1-26.8 31.83-17.69 50.68 6.98 14.47 22.02 22.42 37.18 21.23-22.55 29.91-53.83 89.57-52.42 190.03l21.84-.15c-.02-.9-.14-1.77-.14-2.68 0-58.95 36.37-109.33 87.85-130.16 8.01-37.75 30.74-114.3 73.84-44.29 0 0 48.14 2.38 91.18 8.24 0-.01-77.84-128.03-187.59-54.06zm304.18 134.17c18.84-9.09 26.81-31.81 17.7-50.65-9.1-18.85-31.83-26.77-50.67-17.69-15.27 7.37-23.19 23.69-20.87 39.64-31.71-21.94-89.84-49.05-183.45-47.74l.14 22.5c2.7-.15 5.39-.41 8.14-.41 59.3 0 109.9 36.8 130.49 88.76 39.1 9.02 105.06 31.58 38.46 72.54 0 0-2.34 48.13-8.21 91.16 0 0 133.45-81.16 48.96-194.61 6.43.5 13.07-.49 19.31-3.5zM373.05 436.24c21.43-32.46 46.42-89.69 45.14-179.66l-19.52.14c.08 2.06.3 4.07.3 6.15 0 60.27-38.05 111.55-91.39 131.45-8.85 38.95-31.44 106.66-72.77 39.49 0 0-48.12-2.34-91.19-8.22 0 0 79.92 131.34 191.9 50.97.31 4.72 1.45 9.45 3.64 13.97 9.06 18.89 31.8 26.78 50.64 17.71 18.86-9.1 26.79-31.83 17.7-50.65-6.56-13.62-20.26-21.43-34.45-21.35svg>
<!--
Font Awesome Free 5.3.1 by @fontawesome - https://fontawesome.com
License - https://fontawesome.com/license/free (Icons: CC BY 4.0, Fonts: SIL OFL 1.1, Code: MIT License)
-->