<svg xmlns="http://www.w3.org/2000/svg" viewBox="0 0 576 512"><path d="M353.1 509.8c-5.9 2.9-32.1 3.2-36.5-.5-4.1-3-2.2-11.9-1.5-15 2.2-15-2.5-7.9-9.8-11.5-3.1-1.5-4.1-5.5-4.6-10-.5-1.5-1-2.5-1.5-3.5-1.7-10.7 6.8-33.6 8.2-43.4 4.9-23.7-.7-37.2 1.5-46.9 3.7-16.2 4.1-3.5 4.1-29.9-1.4-25.9 3.3-36.9.5-38.9-14.8 0-64.3 10.7-112.2 2-46.1-8.9-59.4-29-65.4-30.9-10.3-4.5-23.2.5-27.3 7-.1.1-35 70.6-39.6 87.8-6.2 20.5-.5 47.4 4.1 66.8 0 .1 4.5 14.6 10.3 19.5 2.1 1.5 5.1 2.5 7.2 4.5 2.8 2.7 9.4 15.2 9.8 16 2.6 4.5 3.6 8-1.5 10.5-3.6 2-9.3 2.5-14.4 2.5-2.6.5-1.5 3.5-3.1 5-2.9 2.8-20.7 6.1-29.9 2.5-2.6-1-5.7-3-6.2-5-1.5-4 2.1-9-1-12.5-4.5-2.9-13.1-2-17-12-2.2-5.4-2.6-7.6-2.6-49.4 0-9.7-5.9-38.7-8.2-46.9-1.5-5.5-1.5-11.5 0-16 .3-.9 4.1-4.6 4.1-13-1-1.5-4.6-.5-5.1-1.5-10.4-80.6-5.9-79-7.7-98.3-1.5-16-10.9-43.9-6.7-64.3.5-2.4 3.4-21 24.2-38.9 31-26.7 48.4-38.3 159-11.5 1.1.4 66.3 21.1 110.7-9 15.5-11.3 28.8-11.3 35.5-16 .1-.1 61.7-52.1 87-65.3 47.2-29.4 69.9-16.7 75.1-18 4.7-1 13.4-25.8 17-25.8 5.5 0 1.6 20.2 3.6 25.9.5 2 3.6 5 6.2 5 2.3 0 1.7-.8 10.3-5 8.4-5.4 14.9-17.6 20.6-17 11.7 1.6-19 41.6-19 46.9 0 2 .2.8 4.6 9.5 2.6 5.5 4.6 13.5 6.2 20 8.3 29.7 5.7 14.6 13.4 36.9 20.2 50.1 20.6 45.2 20.6 52.9 0 7.5-4.1 11-7.2 16.5-1.5 3-4.6 7.5-7.2 8-2.7.7 7-1.5-13.4 2.5-7.2 1-13.4-4.5-14.9-9.5-1.6-4.7 2.8-10.1-11.8-22.9-10.3-10-21.1-11.3-31.9-17-9.8-5.7-11.9 1-18 8-18 22.9-34 46.9-52 69.8-11.8 15-24.2 30.4-33.5 47.4-3.9 6.8-9.5 28.1-10.3 29.9-6.2 17.7-5.5 25.8-16.5 68.3-3.1 10-5.7 21.4-8.7 32.4-2.2 6.8-7.4 49.3-.5 59.4 2.1 3.5 8.7 4.5 11.3 8 .1.1 9.6 18.2 9.3 20 0 6.1-9.4 5.6-11.3 6.5-4.8 2.9-3.8 5.9-6.4 7.svg>
<!--
Font Awesome Free 5.3.1 by @fontawesome - https://fontawesome.com
License - https://fontawesome.com/license/free (Icons: CC BY 4.0, Fonts: SIL OFL 1.1, Code: MIT License)
-->