<svg xmlns="http://www.w3.org/2000/svg" viewBox="0 0 369.2 512"><path d="M301.6 292l-43.9 88.2-44.6-88.2h-67.6l112.2 220 111.5-220h-67.6zM151.4 0L0 292h89.2l62.2-116.1L213.1 292h88.5L151.4 0svg>
<!--
Font Awesome Free 5.3.1 by @fontawesome - https://fontawesome.com
License - https://fontawesome.com/license/free (Icons: CC BY 4.0, Fonts: SIL OFL 1.1, Code: MIT License)
-->