<svg xmlns="http://www.w3.org/2000/svg" viewBox="0 0 362.3 512"><path d="M144.3 154.6c0-22.3 18.6-30.9 48.4-30.9 43.4 0 98.5 13.3 141.9 36.7V26.1C287.3 7.2 240.1 0 192.8 0 77.1 0 0 60.4 0 161.4c0 157.9 216.8 132.3 216.8 200.4 0 26.4-22.9 34.9-54.7 34.9-47.2 0-108.2-19.5-156.1-45.5v128.5c53 22.8 106.8 32.4 156 32.4 118.6 0 200.3-51 200.3-153.6 0-170.2-218-139.7-218-203.svg>
<!--
Font Awesome Free 5.3.1 by @fontawesome - https://fontawesome.com
License - https://fontawesome.com/license/free (Icons: CC BY 4.0, Fonts: SIL OFL 1.1, Code: MIT License)
-->