<svg xmlns="http://www.w3.org/2000/svg" viewBox="0 0 511.8 512"><path d="M.82 237.82c2.36-15.52 10.69-27.04 24.88-34.03 3.5-1.85 5.65-3.5 6.37-7.81 6.17-33.41 19.53-63.94 39.37-91.59 2.36-3.19 4.01-5.35 1.03-9.35-3.7-5.35-1.03-10.18 2.98-14.49 28.06-31.87 61.88-55.1 101.98-67.44 95.81-29.4 180.1-9.35 252.37 60.45 6.68 6.37 15.52 12.85 6.99 24.36-1.34 1.85 1.03 3.5 2.16 5.04 20.66 28.06 34.23 59.42 40.4 93.65.82 3.7 2.98 5.04 5.86 6.37 17.37 8.84 25.7 23.34 26.01 42.25 0 17.17 1.85 34.54-1.03 51.71-4.01 24.67-29.19 41.74-53.25 36.7-7.2-1.64-9.35-7.2-9.35-14.19 0-28.06.82-56.44 0-84.6-1.85-75.76-36.18-132.81-102.28-169.41C234.28 4.98 92.11 72.42 67.54 196.91c-6.06 30.42-1.74 48.27-3.7 125.82-.31 7.2-4.32 11.2-12.03 11.51C20.97 335.58 0 316.05 0 285.21v-20.87m221.74 106.81c11.82-4.32 20.05-11.82 22.51-24.36 2.36-12.34-12.03-30.02-32.38-48.73-20.87-19.22-48.22-39.06-63.43-46.57-21.69-12.03-41.74-1.85-46.26 22.72-5.04 26.21 0 51.4 14.49 73.91 10.18 15.52 25.39 22.72 43.38 24.05 11.62.62 52.54 2.16 61.69-1.02m129.83 5.55c36.5 2.81 59.33-28.55 58.39-60.45-2.14-45.17-66.17-16.48-87.79-8.02-73.16 28.14-45.05 54.92-22.2 60.75m149.26-1.33c-2.98-2.36-7.2-1.03-8.33 2.36-8.02 25.39-44.72 112.46-172.08 121.51-149.67 10.49 80.29 43.59 145.36-6.37 22.72-17.37 47.6-35.05 46.57-85.43-.32-10.07-4.84-26.72-11.52-32.0svg>
<!--
Font Awesome Free 5.3.1 by @fontawesome - https://fontawesome.com
License - https://fontawesome.com/license/free (Icons: CC BY 4.0, Fonts: SIL OFL 1.1, Code: MIT License)
-->