<svg xmlns="http://www.w3.org/2000/svg" viewBox="0 0 320 512"><path d="M129.5 512V345.9L18.5 48h55.8l81.8 229.7L250.2 0h51.3L180.8 347.8V512h-51.3svg>
<!--
Font Awesome Free 5.3.1 by @fontawesome - https://fontawesome.com
License - https://fontawesome.com/license/free (Icons: CC BY 4.0, Fonts: SIL OFL 1.1, Code: MIT License)
-->