<svg xmlns="http://www.w3.org/2000/svg" viewBox="0 0 448 512"><path d="M351.18 129.15c-35.53-6.25-98.06 14.36-127.18 30.81-29.12-16.45-91.66-37.07-127.19-30.81-81.24 14.3-107.42 124.49-93.09 205.6C18.05 415.86 65.02 512 160.41 512c12.06 0 24.12-4.61 34.44-10.34 18.08-10.03 40.23-10.03 58.31 0 10.32 5.73 22.38 10.34 34.43 10.34 95.39 0 142.36-96.14 156.68-177.25 14.33-81.11-11.83-191.3-93.09-205.6zm-55.55-41.53C326.19 57.06 319.35.65 319.35.65s-56.41-6.85-86.97 23.72c-30.57 30.57-23.72 86.97-23.72 86.97s56.4 6.85 86.97-23.72svg>
<!--
Font Awesome Free 5.3.1 by @fontawesome - https://fontawesome.com
License - https://fontawesome.com/license/free (Icons: CC BY 4.0, Fonts: SIL OFL 1.1, Code: MIT License)
-->