<svg xmlns="http://www.w3.org/2000/svg" viewBox="0 0 512 512"><path d="M488 256H80V112c0-17.645 14.355-32 32-32 11.351 0 21.332 5.945 27.015 14.88-16.492 25.207-14.687 59.576 6.838 83.035-4.176 4.713-4.021 11.916.491 16.428l11.314 11.314c4.686 4.686 12.284 4.686 16.971 0l95.03-95.029c4.686-4.686 4.686-12.284 0-16.971l-11.314-11.314c-4.512-4.512-11.715-4.666-16.428-.491-17.949-16.469-42.294-21.429-64.178-15.365C163.281 45.667 139.212 32 112 32c-44.112 0-80 35.888-80 80v144h-8c-13.255 0-24 10.745-24 24v16c0 13.255 10.745 24 24 24h8v32c0 28.43 12.362 53.969 32 71.547V456c0 13.255 10.745 24 24 24h16c13.255 0 24-10.745 24-24v-8h256v8c0 13.255 10.745 24 24 24h16c13.255 0 24-10.745 24-24v-32.453c19.638-17.578 32-43.117 32-71.547v-32h8c13.255 0 24-10.745 24-24v-16c0-13.255-10.745-24-24-24svg>
<!--
Font Awesome Free 5.3.1 by @fontawesome - https://fontawesome.com
License - https://fontawesome.com/license/free (Icons: CC BY 4.0, Fonts: SIL OFL 1.1, Code: MIT License)
-->