<svg xmlns="http://www.w3.org/2000/svg" viewBox="0 0 512 512"><path d="M16 288c-8.84 0-16 7.16-16 16v32c0 8.84 7.16 16 16 16h112v-64H16zm336-152V0H152c-13.3 0-24 10.7-24 24v264h127.99v-65.18c0-14.28 17.29-21.41 27.36-11.27l95.7 96.43c6.6 6.65 6.6 17.39 0 24.04l-95.7 96.42c-10.06 10.14-27.36 3.01-27.36-11.27V352H128v136c0 13.3 10.7 24 24 24h336c13.3 0 24-10.7 24-24V160H376c-13.2 0-24-10.8-24-24zm153-31L407.1 7c-4.5-4.5-10.6-7-17-7H384v128h128v-6.1c0-6.3-2.5-12.4-7-16.9svg>
<!--
Font Awesome Free 5.3.1 by @fontawesome - https://fontawesome.com
License - https://fontawesome.com/license/free (Icons: CC BY 4.0, Fonts: SIL OFL 1.1, Code: MIT License)
-->