<svg xmlns="http://www.w3.org/2000/svg" viewBox="0 0 448 512"><path d="M187.298 395.314l-79.984 80.002c-6.248 6.247-16.383 6.245-22.627 0L4.705 395.314C-5.365 385.244 1.807 368 16.019 368H64V48c0-8.837 7.163-16 16-16h32c8.837 0 16 7.163 16 16v320h47.984c14.241 0 21.363 17.264 11.314 27.314zm119.075-180.007A12 12 0 0 1 294.838 224h-35.717c-8.22 0-14.007-8.078-11.362-15.861l57.096-168A12 12 0 0 1 316.217 32h39.566c5.139 0 9.708 3.273 11.362 8.139l57.096 168C426.886 215.922 421.1 224 412.879 224h-35.735a12 12 0 0 1-11.515-8.622l-8.301-28.299h-42.863l-8.092 28.228zm22.857-78.697h13.367l-6.6-22.937-6.767 22.937zm12.575 287.323l67.451-95.698a12 12 0 0 0 2.192-6.913V300c0-6.627-5.373-12-12-12H274.522c-6.627 0-12 5.373-12 12v28.93c0 6.627 5.373 12 12 12h56.469c-.739.991-1.497 2.036-2.27 3.133l-67.203 95.205a12.001 12.001 0 0 0-2.196 6.92V468c0 6.627 5.373 12 12 12h129.355c6.627 0 12-5.373 12-12v-28.93c0-6.627-5.373-12-12-12h-61.146c.74-.993 1.5-2.039 2.274-3.137svg>
<!--
Font Awesome Free 5.3.1 by @fontawesome - https://fontawesome.com
License - https://fontawesome.com/license/free (Icons: CC BY 4.0, Fonts: SIL OFL 1.1, Code: MIT License)
-->