<svg xmlns="http://www.w3.org/2000/svg" viewBox="0 0 512 512"><path d="M220.116 487.936l-20.213-49.425a3.992 3.992 0 0 0-5.808-1.886l-45.404 28.104c-29.466 18.24-66.295-8.519-58.054-42.179l12.699-51.865a3.993 3.993 0 0 0-3.59-4.941l-53.251-3.951c-34.554-2.562-48.632-45.855-22.174-68.247L65.08 259.05a3.992 3.992 0 0 0 0-6.106l-40.76-34.497c-26.45-22.384-12.39-65.682 22.174-68.246l53.251-3.951a3.993 3.993 0 0 0 3.59-4.941L90.637 89.443c-8.239-33.656 28.581-60.42 58.054-42.179l45.403 28.104a3.993 3.993 0 0 0 5.808-1.887l20.213-49.425c13.116-32.071 58.638-32.081 71.758 0l20.212 49.424a3.994 3.994 0 0 0 5.809 1.887l45.403-28.104c29.464-18.236 66.297 8.513 58.054 42.179l-12.699 51.865a3.995 3.995 0 0 0 3.59 4.941l53.251 3.951c34.553 2.563 48.633 45.854 22.175 68.246l-40.76 34.497a3.993 3.993 0 0 0 0 6.107l40.76 34.496c26.511 22.441 12.322 65.689-22.175 68.247l-53.251 3.951a3.993 3.993 0 0 0-3.589 4.942l12.698 51.864c8.241 33.658-28.583 60.421-58.054 42.18l-45.403-28.104a3.994 3.994 0 0 0-5.809 1.887l-20.212 49.424c-13.159 32.178-58.675 31.993-71.757 0zm16.814-64.568l19.064 46.616 19.064-46.615c10.308-25.2 40.778-35.066 63.892-20.759l42.822 26.507-11.976-48.919c-6.475-26.444 12.38-52.339 39.487-54.349l50.226-3.726-38.444-32.536c-20.782-17.591-20.747-49.621.001-67.18l38.442-32.536-50.225-3.727c-27.151-2.015-45.95-27.948-39.488-54.349l11.978-48.919-42.823 26.507c-23.151 14.327-53.603 4.4-63.892-20.76l-19.064-46.615-19.064 46.617c-10.305 25.198-40.778 35.066-63.891 20.76l-42.823-26.508 11.977 48.918c6.474 26.446-12.381 52.338-39.488 54.35l-50.224 3.726 38.443 32.537c20.782 17.588 20.747 49.619 0 67.178L52.48 322.123l50.226 3.726c27.151 2.014 45.95 27.947 39.487 54.349l-11.977 48.919 42.823-26.507c23.188-14.355 53.622-4.352 63.891 20.758zM256 384c-70.58 0-128-57.421-128-128 0-70.58 57.42-128 128-128 70.579 0 128 57.42 128 128 0 70.579-57.421 128-128 128zm0-208c-44.112 0-80 35.888-80 80s35.888 80 80 80 80-35.888 80-80-35.888-80-80-80svg>
<!--
Font Awesome Free 5.3.1 by @fontawesome - https://fontawesome.com
License - https://fontawesome.com/license/free (Icons: CC BY 4.0, Fonts: SIL OFL 1.1, Code: MIT License)
-->